{
	"name":"Super-Destroyer",
	"author":"Razaekel",
	"version":"1.0.0",
	"title":"Super-Destroyer",
	"homepage":"",
	"description":"Adds a Super-Destroyer Bot. For the tough ones.",
	"dependencies": []
}